{
  "public": true,
  "displayName": "Public",
  "description": "The public room is open for everyone",
  "contact": "https://www.example.org",
  "comment": "The Public Room...",
  "op": [
    {
      "username":"testuser",
      "password":"1234"
    }
  ],
  "presenter": [{}],
  "max-clients": 20,
  "max-history-age": 14400,
  "allow-recording": false,
  "allow-anonymous": false,
  "allow-subgroups": false
}
